{
  "parent": "minecraft:recipes/root",
  "rewards": {
    "recipes": [
      "planttech2:hedge_dark_oak_spruce_grass"
    ]
  },
  "criteria": {
    "leaves": {
      "trigger": "minecraft:inventory_changed",
      "conditions": {
        "items": [
          {
            "item": "minecraft:dark_oak_leaves"
          }
        ]
      }
    },
    "has_the_recipe": {
      "trigger": "minecraft:recipe_unlocked",
      "conditions": {
        "recipe": "planttech2:hedge_dark_oak_spruce_grass"
      }
    }
  },
  "requirements": [
    [
      "leaves",
      "has_the_recipe"
    ]
  ]
}